{
  "folder": "MvXCryYrs7KpJmp7",
  "name": "Loathsome Puppet",
  "type": "npc",
  "_id": "ie8uN3WQeCqj39vk",
  "img": "icons/svg/mystery-man.svg",
  "system": {
    "currency": {
      "pp": 0,
      "gp": 0,
      "ep": 0,
      "sp": 0,
      "cp": 0
    },
    "abilities": {
      "str": {
        "value": 14,
        "proficient": 0,
        "max": null,
        "bonuses": {
          "check": "",
          "save": ""
        }
      },
      "dex": {
        "value": 16,
        "proficient": 0,
        "max": null,
        "bonuses": {
          "check": "",
          "save": "2"
        }
      },
      "con": {
        "value": 15,
        "proficient": 0,
        "max": null,
        "bonuses": {
          "check": "",
          "save": ""
        }
      },
      "int": {
        "value": 6,
        "proficient": 0,
        "max": null,
        "bonuses": {
          "check": "",
          "save": ""
        }
      },
      "wis": {
        "value": 10,
        "proficient": 0,
        "max": null,
        "bonuses": {
          "check": "",
          "save": ""
        }
      },
      "cha": {
        "value": 8,
        "proficient": 0,
        "max": null,
        "bonuses": {
          "check": "",
          "save": ""
        }
      }
    },
    "bonuses": {
      "mwak": {
        "attack": "",
        "damage": ""
      },
      "rwak": {
        "attack": "",
        "damage": ""
      },
      "msak": {
        "attack": "",
        "damage": ""
      },
      "rsak": {
        "attack": "",
        "damage": ""
      },
      "abilities": {
        "check": "",
        "save": "",
        "skill": ""
      },
      "spell": {
        "dc": ""
      }
    },
    "skills": {
      "acr": {
        "ability": "dex",
        "roll": {
          "min": null,
          "max": null,
          "mode": 0
        },
        "value": 0,
        "bonuses": {
          "check": "",
          "passive": ""
        }
      },
      "ani": {
        "ability": "wis",
        "roll": {
          "min": null,
          "max": null,
          "mode": 0
        },
        "value": 0,
        "bonuses": {
          "check": "",
          "passive": ""
        }
      },
      "arc": {
        "ability": "int",
        "roll": {
          "min": null,
          "max": null,
          "mode": 0
        },
        "value": 0,
        "bonuses": {
          "check": "",
          "passive": ""
        }
      },
      "ath": {
        "ability": "str",
        "roll": {
          "min": null,
          "max": null,
          "mode": 0
        },
        "value": 0,
        "bonuses": {
          "check": "",
          "passive": ""
        }
      },
      "dec": {
        "ability": "cha",
        "roll": {
          "min": null,
          "max": null,
          "mode": 0
        },
        "value": 0,
        "bonuses": {
          "check": "",
          "passive": ""
        }
      },
      "his": {
        "ability": "int",
        "roll": {
          "min": null,
          "max": null,
          "mode": 0
        },
        "value": 0,
        "bonuses": {
          "check": "",
          "passive": ""
        }
      },
      "ins": {
        "ability": "wis",
        "roll": {
          "min": null,
          "max": null,
          "mode": 0
        },
        "value": 0,
        "bonuses": {
          "check": "",
          "passive": ""
        }
      },
      "itm": {
        "ability": "cha",
        "roll": {
          "min": null,
          "max": null,
          "mode": 0
        },
        "value": 0,
        "bonuses": {
          "check": "",
          "passive": ""
        }
      },
      "inv": {
        "ability": "int",
        "roll": {
          "min": null,
          "max": null,
          "mode": 0
        },
        "value": 0,
        "bonuses": {
          "check": "",
          "passive": ""
        }
      },
      "med": {
        "ability": "wis",
        "roll": {
          "min": null,
          "max": null,
          "mode": 0
        },
        "value": 0,
        "bonuses": {
          "check": "",
          "passive": ""
        }
      },
      "nat": {
        "ability": "int",
        "roll": {
          "min": null,
          "max": null,
          "mode": 0
        },
        "value": 0,
        "bonuses": {
          "check": "",
          "passive": ""
        }
      },
      "prc": {
        "ability": "wis",
        "roll": {
          "min": null,
          "max": null,
          "mode": 0
        },
        "value": 0,
        "bonuses": {
          "check": "",
          "passive": ""
        }
      },
      "prf": {
        "ability": "cha",
        "roll": {
          "min": null,
          "max": null,
          "mode": 0
        },
        "value": 0,
        "bonuses": {
          "check": "",
          "passive": ""
        }
      },
      "per": {
        "ability": "cha",
        "roll": {
          "min": null,
          "max": null,
          "mode": 0
        },
        "value": 0,
        "bonuses": {
          "check": "",
          "passive": ""
        }
      },
      "rel": {
        "ability": "int",
        "roll": {
          "min": null,
          "max": null,
          "mode": 0
        },
        "value": 0,
        "bonuses": {
          "check": "",
          "passive": ""
        }
      },
      "slt": {
        "ability": "dex",
        "roll": {
          "min": null,
          "max": null,
          "mode": 0
        },
        "value": 0,
        "bonuses": {
          "check": "",
          "passive": ""
        }
      },
      "ste": {
        "ability": "dex",
        "roll": {
          "min": null,
          "max": null,
          "mode": 0
        },
        "value": 0,
        "bonuses": {
          "check": "",
          "passive": ""
        }
      },
      "sur": {
        "ability": "wis",
        "roll": {
          "min": null,
          "max": null,
          "mode": 0
        },
        "value": 0,
        "bonuses": {
          "check": "",
          "passive": ""
        }
      }
    },
    "tools": {},
    "spells": {
      "spell1": {
        "value": 0,
        "override": null
      },
      "spell2": {
        "value": 0,
        "override": null
      },
      "spell3": {
        "value": 0,
        "override": null
      },
      "spell4": {
        "value": 0,
        "override": null
      },
      "spell5": {
        "value": 0,
        "override": null
      },
      "spell6": {
        "value": 0,
        "override": null
      },
      "spell7": {
        "value": 0,
        "override": null
      },
      "spell8": {
        "value": 0,
        "override": null
      },
      "spell9": {
        "value": 0,
        "override": null
      },
      "pact": {
        "value": 0,
        "override": null
      }
    },
    "attributes": {
      "init": {
        "ability": "",
        "roll": {
          "min": null,
          "max": null,
          "mode": 0
        },
        "bonus": ""
      },
      "movement": {
        "burrow": null,
        "climb": null,
        "fly": null,
        "swim": null,
        "walk": 30,
        "units": null,
        "hover": false
      },
      "attunement": {
        "max": 3
      },
      "senses": {
        "darkvision": 60,
        "blindsight": null,
        "tremorsense": null,
        "truesight": null,
        "units": null,
        "special": ""
      },
      "spellcasting": "int",
      "exhaustion": 0,
      "concentration": {
        "ability": "",
        "roll": {
          "min": null,
          "max": null,
          "mode": 0
        },
        "bonuses": {
          "save": ""
        },
        "limit": 1
      },
      "ac": {
        "flat": 14,
        "calc": "natural"
      },
      "hd": {
        "spent": 0
      },
      "hp": {
        "value": 75,
        "max": 75,
        "temp": 0,
        "tempmax": 0,
        "formula": "10d10+20"
      },
      "death": {
        "ability": "",
        "roll": {
          "min": null,
          "max": null,
          "mode": 0
        },
        "success": 0,
        "failure": 0
      }
    },
    "details": {
      "biography": {
        "value": "",
        "public": ""
      },
      "alignment": "Neutral Evil",
      "race": null,
      "type": {
        "value": "undead",
        "custom": "",
        "subtype": "",
        "swarm": ""
      },
      "environment": "",
      "cr": 6,
      "spellLevel": 0,
      "source": {
        "custom": "",
        "book": "AGTT",
        "page": "",
        "license": ""
      }
    },
    "resources": {
      "legact": {
        "value": 0,
        "max": 0
      },
      "legres": {
        "value": 0,
        "max": 0
      },
      "lair": {
        "value": false,
        "initiative": null
      }
    },
    "traits": {
      "size": "med",
      "di": {
        "bypasses": [],
        "value": [],
        "custom": ""
      },
      "dr": {
        "bypasses": [],
        "value": [],
        "custom": ""
      },
      "dv": {
        "bypasses": [],
        "value": [],
        "custom": ""
      },
      "dm": {
        "amount": {},
        "bypasses": []
      },
      "ci": {
        "value": [
          "charmed",
          "exhaustion",
          "frightened"
        ],
        "custom": ""
      },
      "languages": {
        "value": [],
        "custom": ""
      }
    }
  },
  "prototypeToken": {
    "name": "Loathsome Puppet",
    "displayName": 0,
    "actorLink": false,
    "appendNumber": false,
    "prependAdjective": false,
    "width": 1,
    "height": 1,
    "texture": {
      "src": "icons/svg/mystery-man.svg",
      "anchorX": 0.5,
      "anchorY": 0.5,
      "offsetX": 0,
      "offsetY": 0,
      "fit": "contain",
      "scaleX": 1,
      "scaleY": 1,
      "rotation": 0,
      "tint": "#ffffff",
      "alphaThreshold": 0.75
    },
    "hexagonalShape": 0,
    "lockRotation": false,
    "rotation": 0,
    "alpha": 1,
    "disposition": -1,
    "displayBars": 0,
    "bar1": {
      "attribute": "attributes.hp"
    },
    "bar2": {
      "attribute": null
    },
    "light": {
      "negative": false,
      "priority": 0,
      "alpha": 0.5,
      "angle": 360,
      "bright": 0,
      "color": null,
      "coloration": 1,
      "dim": 0,
      "attenuation": 0.5,
      "luminosity": 0.5,
      "saturation": 0,
      "contrast": 0,
      "shadows": 0,
      "animation": {
        "type": null,
        "speed": 5,
        "intensity": 5,
        "reverse": false
      },
      "darkness": {
        "min": 0,
        "max": 1
      }
    },
    "sight": {
      "enabled": false,
      "range": 0,
      "angle": 360,
      "visionMode": "basic",
      "color": null,
      "attenuation": 0.1,
      "brightness": 0,
      "saturation": 0,
      "contrast": 0
    },
    "detectionModes": [],
    "occludable": {
      "radius": 0
    },
    "ring": {
      "enabled": false,
      "colors": {
        "ring": null,
        "background": null
      },
      "effects": 1,
      "subject": {
        "scale": 1,
        "texture": null
      }
    },
    "flags": {},
    "randomImg": false
  },
  "items": [
    {
      "_id": "Sz2VG6Jdsrd8KxZi",
      "name": "Multiattack",
      "ownership": {
        "default": 0,
        "7AQaUVDoHuZUwVGK": 3
      },
      "type": "feat",
      "system": {
        "description": {
          "value": "<p>The [[lookup @name lowercase]] makes two attacks: one with Bone Spike and one with Corpse Grasp.</p>",
          "chat": ""
        },
        "source": {
          "custom": "",
          "book": "AGTT",
          "page": "",
          "license": ""
        },
        "activation": {
          "type": "action",
          "cost": 1,
          "condition": ""
        },
        "duration": {
          "value": "",
          "units": ""
        },
        "cover": null,
        "target": {
          "value": "",
          "width": null,
          "units": "",
          "type": "",
          "prompt": true
        },
        "range": {
          "value": null,
          "long": null,
          "units": ""
        },
        "uses": {
          "value": null,
          "max": "",
          "per": null,
          "recovery": "",
          "prompt": true
        },
        "consume": {
          "type": "",
          "target": null,
          "amount": null,
          "scale": false
        },
        "ability": null,
        "actionType": "",
        "chatFlavor": "",
        "critical": {
          "threshold": null,
          "damage": ""
        },
        "damage": {
          "parts": [],
          "versatile": ""
        },
        "formula": "",
        "save": {
          "ability": "",
          "dc": null,
          "scaling": "spell"
        },
        "type": {
          "value": "monster",
          "subtype": ""
        },
        "requirements": "",
        "recharge": {
          "value": null,
          "charged": false
        },
        "attack": {
          "bonus": "",
          "flat": false
        },
        "crewed": false,
        "enchantment": null,
        "summons": null,
        "prerequisites": {
          "level": null
        },
        "properties": []
      },
      "flags": {},
      "img": "icons/skills/melee/blade-tips-triple-steel.webp",
      "effects": [],
      "folder": null,
      "sort": 0,
      "_stats": {
        "compendiumSource": "Compendium.dnd5e.monsterfeatures.Item.EqoLg8T8EHvhJgKE",
        "duplicateSource": null,
        "coreVersion": "12.327",
        "systemId": "dnd5e",
        "systemVersion": "3.2.1",
        "createdTime": 1719376451030,
        "modifiedTime": 1719376499634,
        "lastModifiedBy": "7AQaUVDoHuZUwVGK"
      },
      "_key": "!actors.items!ie8uN3WQeCqj39vk.Sz2VG6Jdsrd8KxZi"
    },
    {
      "name": "Bone Spike",
      "type": "weapon",
      "system": {
        "type": {
          "value": "natural",
          "baseItem": ""
        },
        "description": {
          "value": "<section class=\"secret\" id=\"secret-zKEMScae66IzJgAT\"><p><em>Melee Weapon Attack:</em><strong>+8 to hit,</strong>, <strong>10 ft.,</strong> one creature. Hit: <strong>13 (2d8 + 5) </strong><em><strong>piercing damage</strong></em>.</p><p>The target must make a <strong>DC 15 Wisdom</strong> saving throw or be frightened until the end of its next turn.</p></section><p></p>",
          "chat": ""
        },
        "source": {
          "custom": "",
          "book": "AGTT",
          "page": "",
          "license": ""
        },
        "identified": true,
        "unidentified": {
          "description": ""
        },
        "container": null,
        "quantity": 1,
        "weight": {
          "value": 0,
          "units": "lb"
        },
        "price": {
          "value": 0,
          "denomination": "gp"
        },
        "rarity": "",
        "attunement": "",
        "attuned": false,
        "equipped": true,
        "activation": {
          "type": "action",
          "cost": 1,
          "condition": ""
        },
        "duration": {
          "value": "",
          "units": ""
        },
        "cover": null,
        "crewed": false,
        "target": {
          "value": "1",
          "width": null,
          "units": "",
          "type": "creature",
          "prompt": true
        },
        "range": {
          "value": 10,
          "long": null,
          "units": "ft"
        },
        "uses": {
          "value": null,
          "max": "",
          "per": null,
          "recovery": "",
          "prompt": true
        },
        "consume": {
          "type": "",
          "target": null,
          "amount": null,
          "scale": false
        },
        "ability": "",
        "actionType": "mwak",
        "attack": {
          "bonus": "3",
          "flat": false
        },
        "chatFlavor": "The target must make a DC 15 Wisdom saving throw or be frightened until the end of its next turn.",
        "critical": {
          "threshold": null,
          "damage": ""
        },
        "damage": {
          "parts": [
            [
              "2d8+5",
              "piercing"
            ]
          ],
          "versatile": ""
        },
        "enchantment": null,
        "formula": "",
        "save": {
          "ability": "wis",
          "dc": 15,
          "scaling": "flat"
        },
        "summons": null,
        "armor": {
          "value": null
        },
        "hp": {
          "value": null,
          "max": null,
          "dt": null,
          "conditions": ""
        },
        "magicalBonus": null,
        "properties": [],
        "proficient": null
      },
      "_id": "iuUEzizoZ9JEieMu",
      "img": "systems/dnd5e/icons/svg/items/weapon.svg",
      "effects": [],
      "folder": null,
      "sort": 0,
      "ownership": {
        "default": 0,
        "7AQaUVDoHuZUwVGK": 3
      },
      "flags": {},
      "_stats": {
        "compendiumSource": null,
        "duplicateSource": null,
        "coreVersion": "12.327",
        "systemId": "dnd5e",
        "systemVersion": "3.2.1",
        "createdTime": 1719376513653,
        "modifiedTime": 1719377284602,
        "lastModifiedBy": "7AQaUVDoHuZUwVGK"
      },
      "_key": "!actors.items!ie8uN3WQeCqj39vk.iuUEzizoZ9JEieMu"
    },
    {
      "name": "Corpse Grasp",
      "type": "weapon",
      "system": {
        "type": {
          "value": "natural",
          "baseItem": ""
        },
        "description": {
          "value": "<section class=\"secret\" id=\"secret-ABOc1lWvY4m2KSAH\"><p><em>Melee Weapon Attack:</em><strong>+8 to hit,</strong>, <strong>5 ft.,</strong> one creature. Hit: <strong>9 (1d8 + 5) </strong><em><strong>slashing damage</strong></em>.</p></section><p></p>",
          "chat": ""
        },
        "source": {
          "custom": "",
          "book": "AGTT",
          "page": "",
          "license": ""
        },
        "identified": true,
        "unidentified": {
          "description": ""
        },
        "container": null,
        "quantity": 1,
        "weight": {
          "value": 0,
          "units": "lb"
        },
        "price": {
          "value": 0,
          "denomination": "gp"
        },
        "rarity": "",
        "attunement": "",
        "attuned": false,
        "equipped": true,
        "activation": {
          "type": "action",
          "cost": 1,
          "condition": ""
        },
        "duration": {
          "value": "",
          "units": ""
        },
        "cover": null,
        "crewed": false,
        "target": {
          "value": "1",
          "width": null,
          "units": "",
          "type": "creature",
          "prompt": true
        },
        "range": {
          "value": 5,
          "long": null,
          "units": "ft"
        },
        "uses": {
          "value": null,
          "max": "",
          "per": null,
          "recovery": "",
          "prompt": true
        },
        "consume": {
          "type": "",
          "target": null,
          "amount": null,
          "scale": false
        },
        "ability": "",
        "actionType": "mwak",
        "attack": {
          "bonus": "3",
          "flat": false
        },
        "chatFlavor": "",
        "critical": {
          "threshold": null,
          "damage": ""
        },
        "damage": {
          "parts": [
            [
              "1d8+5",
              "slashing"
            ]
          ],
          "versatile": ""
        },
        "enchantment": null,
        "formula": "",
        "save": {
          "ability": "",
          "dc": null,
          "scaling": "spell"
        },
        "summons": null,
        "armor": {
          "value": null
        },
        "hp": {
          "value": null,
          "max": null,
          "dt": null,
          "conditions": ""
        },
        "magicalBonus": null,
        "properties": [],
        "proficient": null
      },
      "_id": "AikhDuysh25N9Tsi",
      "img": "systems/dnd5e/icons/svg/items/weapon.svg",
      "effects": [],
      "folder": null,
      "sort": 0,
      "ownership": {
        "default": 0,
        "7AQaUVDoHuZUwVGK": 3
      },
      "flags": {},
      "_stats": {
        "compendiumSource": null,
        "duplicateSource": null,
        "coreVersion": "12.327",
        "systemId": "dnd5e",
        "systemVersion": "3.2.1",
        "createdTime": 1719377085730,
        "modifiedTime": 1719377329237,
        "lastModifiedBy": "7AQaUVDoHuZUwVGK"
      },
      "_key": "!actors.items!ie8uN3WQeCqj39vk.AikhDuysh25N9Tsi"
    },
    {
      "name": "Vile Touch",
      "type": "feat",
      "system": {
        "activation": {
          "type": "action",
          "cost": 1,
          "condition": ""
        },
        "description": {
          "value": "<section class=\"secret\" id=\"secret-AvUN7R7ITee3988o\"><p><em>Melee Spell Attack:</em><strong>+8 to hit,</strong>, <strong>5 ft.,</strong> one creature. Hit: <strong>22 (4d10) </strong><em><strong>necrotic damage</strong></em>.</p><p>The target must make a <strong>DC 15 Constitution </strong>saving throw or become poisoned until the end of its next turn, taking <strong>7 (2d6) </strong><em><strong>poison damage </strong></em>at the start of each of its turns.</p></section><p></p>",
          "chat": ""
        },
        "source": {
          "custom": "",
          "book": "AGTT",
          "page": "",
          "license": ""
        },
        "duration": {
          "value": "",
          "units": ""
        },
        "cover": null,
        "crewed": false,
        "target": {
          "value": "1",
          "width": null,
          "units": "",
          "type": "creature",
          "prompt": true
        },
        "range": {
          "value": 5,
          "long": null,
          "units": "ft"
        },
        "uses": {
          "value": null,
          "max": "",
          "per": null,
          "recovery": "",
          "prompt": true
        },
        "consume": {
          "type": "",
          "target": null,
          "amount": null,
          "scale": false
        },
        "ability": "",
        "actionType": "msak",
        "attack": {
          "bonus": "7",
          "flat": false
        },
        "chatFlavor": "The target must make a DC 15 Constitution saving throw or become poisoned until the end of its next turn, taking 7 (2d6) poison damage at the start of each of its turns.",
        "critical": {
          "threshold": null,
          "damage": ""
        },
        "damage": {
          "parts": [
            [
              "4d10",
              "necrotic"
            ]
          ],
          "versatile": ""
        },
        "enchantment": null,
        "formula": "",
        "save": {
          "ability": "con",
          "dc": 15,
          "scaling": "flat"
        },
        "summons": null,
        "type": {
          "value": "monster",
          "subtype": ""
        },
        "prerequisites": {
          "level": null
        },
        "properties": [
          "mgc"
        ],
        "requirements": "",
        "recharge": {
          "value": null,
          "charged": false
        }
      },
      "_id": "yBhri4VTjwemRJQj",
      "img": "systems/dnd5e/icons/svg/items/feature.svg",
      "effects": [],
      "folder": null,
      "sort": 0,
      "ownership": {
        "default": 0,
        "7AQaUVDoHuZUwVGK": 3
      },
      "flags": {},
      "_stats": {
        "compendiumSource": null,
        "duplicateSource": null,
        "coreVersion": "12.327",
        "systemId": "dnd5e",
        "systemVersion": "3.2.1",
        "createdTime": 1719377522831,
        "modifiedTime": 1719377684910,
        "lastModifiedBy": "7AQaUVDoHuZUwVGK"
      },
      "_key": "!actors.items!ie8uN3WQeCqj39vk.yBhri4VTjwemRJQj"
    },
    {
      "name": "Deathless Resolve",
      "type": "feat",
      "system": {
        "description": {
          "value": "<p>The Loathsome Puppet has advantage on saving throws against being charmed or frightened.</p>",
          "chat": ""
        },
        "source": {
          "custom": "",
          "book": "AGTT",
          "page": "",
          "license": ""
        },
        "activation": {
          "type": "",
          "cost": null,
          "condition": ""
        },
        "duration": {
          "value": "",
          "units": ""
        },
        "cover": null,
        "crewed": false,
        "target": {
          "value": "",
          "width": null,
          "units": "",
          "type": "",
          "prompt": true
        },
        "range": {
          "value": null,
          "long": null,
          "units": ""
        },
        "uses": {
          "value": null,
          "max": "",
          "per": null,
          "recovery": "",
          "prompt": true
        },
        "consume": {
          "type": "",
          "target": null,
          "amount": null,
          "scale": false
        },
        "ability": null,
        "actionType": "",
        "attack": {
          "bonus": "",
          "flat": false
        },
        "chatFlavor": "",
        "critical": {
          "threshold": null,
          "damage": ""
        },
        "damage": {
          "parts": [],
          "versatile": ""
        },
        "enchantment": null,
        "formula": "",
        "save": {
          "ability": "",
          "dc": null,
          "scaling": "spell"
        },
        "summons": null,
        "type": {
          "value": "monster",
          "subtype": ""
        },
        "prerequisites": {
          "level": null
        },
        "properties": [],
        "requirements": "",
        "recharge": {
          "value": null,
          "charged": false
        }
      },
      "_id": "UE55HMJO7GNp4KJg",
      "img": "systems/dnd5e/icons/svg/items/feature.svg",
      "effects": [],
      "folder": null,
      "sort": 0,
      "ownership": {
        "default": 0,
        "7AQaUVDoHuZUwVGK": 3
      },
      "flags": {},
      "_stats": {
        "compendiumSource": null,
        "duplicateSource": null,
        "coreVersion": "12.327",
        "systemId": "dnd5e",
        "systemVersion": "3.2.1",
        "createdTime": 1719378504868,
        "modifiedTime": 1719378544655,
        "lastModifiedBy": "7AQaUVDoHuZUwVGK"
      },
      "_key": "!actors.items!ie8uN3WQeCqj39vk.UE55HMJO7GNp4KJg"
    },
    {
      "name": "Undead Fortitude",
      "type": "feat",
      "system": {
        "description": {
          "value": "<p>If damage reduces the Loathsome Puppet to 0 hit points, it must make a Constitution saving throw with a DC of 5 + the damage taken, unless the damage is radiant or from a critical hit. On a success, the Loathsome Puppet drops to 1 hit point instead.</p>",
          "chat": ""
        },
        "source": {
          "custom": "",
          "book": "AGTT",
          "page": "",
          "license": ""
        },
        "activation": {
          "type": "",
          "cost": null,
          "condition": ""
        },
        "duration": {
          "value": "",
          "units": ""
        },
        "cover": null,
        "crewed": false,
        "target": {
          "value": "",
          "width": null,
          "units": "",
          "type": "",
          "prompt": true
        },
        "range": {
          "value": null,
          "long": null,
          "units": ""
        },
        "uses": {
          "value": null,
          "max": "",
          "per": null,
          "recovery": "",
          "prompt": true
        },
        "consume": {
          "type": "",
          "target": null,
          "amount": null,
          "scale": false
        },
        "ability": null,
        "actionType": "",
        "attack": {
          "bonus": "",
          "flat": false
        },
        "chatFlavor": "",
        "critical": {
          "threshold": null,
          "damage": ""
        },
        "damage": {
          "parts": [],
          "versatile": ""
        },
        "enchantment": null,
        "formula": "",
        "save": {
          "ability": "",
          "dc": null,
          "scaling": "spell"
        },
        "summons": null,
        "type": {
          "value": "monster",
          "subtype": ""
        },
        "prerequisites": {
          "level": null
        },
        "properties": [],
        "requirements": "",
        "recharge": {
          "value": null,
          "charged": false
        }
      },
      "_id": "wmu4s39S1SA3iZC4",
      "img": "systems/dnd5e/icons/svg/items/feature.svg",
      "effects": [],
      "folder": null,
      "sort": 0,
      "ownership": {
        "default": 0,
        "7AQaUVDoHuZUwVGK": 3
      },
      "flags": {},
      "_stats": {
        "compendiumSource": null,
        "duplicateSource": null,
        "coreVersion": "12.327",
        "systemId": "dnd5e",
        "systemVersion": "3.2.1",
        "createdTime": 1719378556197,
        "modifiedTime": 1719378632070,
        "lastModifiedBy": "7AQaUVDoHuZUwVGK"
      },
      "_key": "!actors.items!ie8uN3WQeCqj39vk.wmu4s39S1SA3iZC4"
    }
  ],
  "effects": [],
  "sort": 0,
  "ownership": {
    "default": 0,
    "7AQaUVDoHuZUwVGK": 3
  },
  "flags": {},
  "_stats": {
    "compendiumSource": null,
    "duplicateSource": null,
    "coreVersion": "12.327",
    "systemId": "dnd5e",
    "systemVersion": "3.2.1",
    "createdTime": 1719376120675,
    "modifiedTime": 1719378362460,
    "lastModifiedBy": "7AQaUVDoHuZUwVGK"
  },
  "_key": "!actors!ie8uN3WQeCqj39vk"
}
