{
  "folder": "O1ARRR2SVgPP54kE",
  "name": "Balance the Scales",
  "type": "feat",
  "_id": "qudomGF0JQYVodRJ",
  "img": "systems/dnd5e/icons/svg/items/feature.svg",
  "system": {
    "description": {
      "value": "<p><span style=\"font-family:Arial,sans-serif\"><strong style=\"font-weight:normal\" id=\"docs-internal-guid-194b180a-7fff-8ed0-f560-4df353e91461\">At 8th level, you gain the ability to infuse your weapon with the power to punish wrongdoing. Once on each of your turns, when you hit a creature with a weapon attack, you can cause the attack to deal an extra 1d8 force damage to the target.</strong></span></p><p><span style=\"font-family:Arial,sans-serif\"><strong style=\"font-weight:normal\" id=\"docs-internal-guid-194b180a-7fff-8ed0-f560-4df353e91461\">Starting at 14th level, this extra damage is also done to everyone within 30 feet of the target that has broken the law within the last 7 days.</strong></span></p>",
      "chat": ""
    },
    "source": {
      "custom": "",
      "book": "AGTT",
      "page": "",
      "license": ""
    },
    "activation": {
      "type": "",
      "cost": null,
      "condition": ""
    },
    "duration": {
      "value": "",
      "units": ""
    },
    "cover": null,
    "crewed": false,
    "target": {
      "value": "",
      "width": null,
      "units": "",
      "type": "",
      "prompt": true
    },
    "range": {
      "value": null,
      "long": null,
      "units": ""
    },
    "uses": {
      "value": null,
      "max": "",
      "per": null,
      "recovery": "",
      "prompt": true
    },
    "consume": {
      "type": "",
      "target": null,
      "amount": null,
      "scale": false
    },
    "ability": null,
    "actionType": "",
    "attack": {
      "bonus": "",
      "flat": false
    },
    "chatFlavor": "",
    "critical": {
      "threshold": null,
      "damage": ""
    },
    "damage": {
      "parts": [],
      "versatile": ""
    },
    "enchantment": null,
    "formula": "",
    "save": {
      "ability": "",
      "dc": null,
      "scaling": "spell"
    },
    "summons": null,
    "type": {
      "value": "class",
      "subtype": ""
    },
    "prerequisites": {
      "level": null
    },
    "properties": [],
    "requirements": "Balance Domain 8",
    "recharge": {
      "value": null,
      "charged": false
    }
  },
  "effects": [],
  "sort": 0,
  "ownership": {
    "default": 0,
    "jRuzd19UqO72fSRx": 3
  },
  "flags": {},
  "_stats": {
    "compendiumSource": null,
    "duplicateSource": null,
    "coreVersion": "12.327",
    "systemId": "dnd5e",
    "systemVersion": "3.2.1",
    "createdTime": 1719445446926,
    "modifiedTime": 1719445470425,
    "lastModifiedBy": "jRuzd19UqO72fSRx"
  },
  "_key": "!items!qudomGF0JQYVodRJ"
}
