{
  "folder": "txZ6OPZHgJG8Gb9W",
  "name": "Can't Stop, Won't Stop",
  "type": "feat",
  "_id": "yFLOq28Cn7RhBF4s",
  "img": "systems/dnd5e/icons/svg/items/feature.svg",
  "system": {
    "description": {
      "value": "<p><span style=\"font-family:Arial,sans-serif\"><strong style=\"font-weight:normal\" id=\"docs-internal-guid-3adb2aa4-7fff-7988-0d4a-845379ba342c\">You may reroll any 1's that come up on damage rolls once and take the new result. You can no longer cast spells that cost less than 3HP after level 3.</strong></span></p>",
      "chat": ""
    },
    "source": {
      "book": "AGTT",
      "page": "",
      "custom": "",
      "license": ""
    },
    "activation": {
      "type": "",
      "cost": null,
      "condition": ""
    },
    "duration": {
      "value": "",
      "units": ""
    },
    "cover": null,
    "crewed": false,
    "target": {
      "value": "",
      "width": null,
      "units": "",
      "type": "",
      "prompt": true
    },
    "range": {
      "value": null,
      "long": null,
      "units": ""
    },
    "uses": {
      "value": null,
      "max": "",
      "per": null,
      "recovery": "",
      "prompt": true
    },
    "consume": {
      "type": "",
      "target": null,
      "amount": null,
      "scale": false
    },
    "ability": null,
    "actionType": "",
    "attack": {
      "bonus": "",
      "flat": false
    },
    "chatFlavor": "",
    "critical": {
      "threshold": null,
      "damage": ""
    },
    "damage": {
      "parts": [],
      "versatile": ""
    },
    "enchantment": null,
    "formula": "",
    "save": {
      "ability": "",
      "dc": null,
      "scaling": "spell"
    },
    "summons": null,
    "type": {
      "value": "class",
      "subtype": ""
    },
    "prerequisites": {
      "level": 3
    },
    "properties": [],
    "requirements": "Ambitious 3",
    "recharge": {
      "value": null,
      "charged": false
    }
  },
  "effects": [],
  "sort": 0,
  "ownership": {
    "default": 0
  },
  "flags": {},
  "_stats": {
    "duplicateSource": null,
    "coreVersion": "12.327",
    "systemId": "dnd5e",
    "systemVersion": "3.2.1",
    "createdTime": 1719340903070,
    "modifiedTime": 1719340941557,
    "lastModifiedBy": "dnd5ebuilder0000"
  },
  "_key": "!items!yFLOq28Cn7RhBF4s"
}
