{
  "folder": "ngHQb1SdL2GnvfXr",
  "name": "Channel Divinity: People Watcher",
  "type": "feat",
  "_id": "TIOy7XW6W30Go0Lf",
  "img": "systems/dnd5e/icons/svg/items/feature.svg",
  "system": {
    "description": {
      "value": "<p><span style=\"font-family:Arial,sans-serif\"><strong style=\"font-weight:normal\" id=\"docs-internal-guid-2c27a432-7fff-cd90-802a-ea135195c55e\">Starting at 2nd level, yourself and all party members gain advantage on all insight checks when used against a humanoid creature with 5 or more intelligence.</strong></span></p>",
      "chat": ""
    },
    "source": {
      "custom": "",
      "book": "AGTT",
      "page": "",
      "license": ""
    },
    "activation": {
      "type": "",
      "cost": null,
      "condition": ""
    },
    "duration": {
      "value": "",
      "units": ""
    },
    "cover": null,
    "crewed": false,
    "target": {
      "value": "",
      "width": null,
      "units": "",
      "type": "",
      "prompt": true
    },
    "range": {
      "value": null,
      "long": null,
      "units": ""
    },
    "uses": {
      "value": null,
      "max": "",
      "per": null,
      "recovery": "",
      "prompt": true
    },
    "consume": {
      "type": "",
      "target": null,
      "amount": null,
      "scale": false
    },
    "ability": null,
    "actionType": "",
    "attack": {
      "bonus": "",
      "flat": false
    },
    "chatFlavor": "",
    "critical": {
      "threshold": null,
      "damage": ""
    },
    "damage": {
      "parts": [],
      "versatile": ""
    },
    "enchantment": null,
    "formula": "",
    "save": {
      "ability": "",
      "dc": null,
      "scaling": "spell"
    },
    "summons": null,
    "type": {
      "value": "class",
      "subtype": "channelDivinity"
    },
    "prerequisites": {
      "level": null
    },
    "properties": [],
    "requirements": "Emotion Domain 2",
    "recharge": {
      "value": null,
      "charged": false
    }
  },
  "effects": [],
  "sort": 0,
  "ownership": {
    "default": 0,
    "jRuzd19UqO72fSRx": 3
  },
  "flags": {},
  "_stats": {
    "compendiumSource": null,
    "duplicateSource": null,
    "coreVersion": "12.327",
    "systemId": "dnd5e",
    "systemVersion": "3.2.1",
    "createdTime": 1719438641018,
    "modifiedTime": 1719438663502,
    "lastModifiedBy": "jRuzd19UqO72fSRx"
  },
  "_key": "!items!TIOy7XW6W30Go0Lf"
}
