{
  "folder": "f8UqvTllbjdp2Csn",
  "name": "Channel Divinity: From Pillar to Post",
  "type": "feat",
  "_id": "Tuvize8hH3pITSbW",
  "img": "systems/dnd5e/icons/svg/items/feature.svg",
  "system": {
    "description": {
      "value": "<p><span style=\"font-family:Arial,sans-serif\"><strong style=\"font-weight:normal\" id=\"docs-internal-guid-93654c4a-7fff-1ba1-63fa-8413ab0549f4\">Starting at 2nd level, you can use your Channel Divinity to infuse your allies with exaggerated extremes of life and death. Whenever your allies need to make a death saving throw, they may do so with advantage. However, all other saving throws during this time are done with disadvantage. This lasts for one hour.</strong></span></p>",
      "chat": ""
    },
    "source": {
      "book": "AGTT",
      "page": "",
      "custom": "",
      "license": ""
    },
    "activation": {
      "type": "",
      "cost": null,
      "condition": ""
    },
    "duration": {
      "value": "",
      "units": ""
    },
    "cover": null,
    "crewed": false,
    "target": {
      "value": "",
      "width": null,
      "units": "",
      "type": "",
      "prompt": true
    },
    "range": {
      "value": null,
      "long": null,
      "units": ""
    },
    "uses": {
      "value": null,
      "max": "",
      "per": null,
      "recovery": "",
      "prompt": true
    },
    "consume": {
      "type": "",
      "target": null,
      "amount": null,
      "scale": false
    },
    "ability": null,
    "actionType": "",
    "attack": {
      "bonus": "",
      "flat": false
    },
    "chatFlavor": "",
    "critical": {
      "threshold": null,
      "damage": ""
    },
    "damage": {
      "parts": [],
      "versatile": ""
    },
    "enchantment": null,
    "formula": "",
    "save": {
      "ability": "",
      "dc": null,
      "scaling": "spell"
    },
    "summons": null,
    "type": {
      "value": "class",
      "subtype": "channelDivinity"
    },
    "prerequisites": {
      "level": null
    },
    "properties": [],
    "requirements": "Perpetual Domain 2",
    "recharge": {
      "value": null,
      "charged": false
    }
  },
  "effects": [],
  "sort": 0,
  "ownership": {
    "default": 0,
    "jRuzd19UqO72fSRx": 3
  },
  "flags": {},
  "_stats": {
    "compendiumSource": null,
    "duplicateSource": null,
    "coreVersion": "12.327",
    "systemId": "dnd5e",
    "systemVersion": "3.2.1",
    "createdTime": 1719441544220,
    "modifiedTime": 1719441570069,
    "lastModifiedBy": "jRuzd19UqO72fSRx"
  },
  "_key": "!items!Tuvize8hH3pITSbW"
}
