{
  "name": "Emotion Domain Features",
  "sorting": "a",
  "folder": "n5QQczffpjvnuYYy",
  "type": "Item",
  "_id": "ngHQb1SdL2GnvfXr",
  "description": "",
  "sort": 0,
  "color": null,
  "flags": {},
  "_stats": {
    "compendiumSource": null,
    "duplicateSource": null,
    "coreVersion": "12.327",
    "systemId": "dnd5e",
    "systemVersion": "3.2.1",
    "createdTime": null,
    "modifiedTime": null,
    "lastModifiedBy": null
  },
  "_key": "!folders!ngHQb1SdL2GnvfXr"
}
