{
  "folder": "p0d3f0KxSgJYHoUj",
  "name": "Fear Itself",
  "type": "feat",
  "_id": "PuJcQB2vwjw2L0ko",
  "img": "systems/dnd5e/icons/svg/items/feature.svg",
  "system": {
    "description": {
      "value": "<p><span style=\"font-family:Arial,sans-serif\"><strong style=\"font-weight:normal\" id=\"docs-internal-guid-b0cb4f32-7fff-326b-ae3a-6ce289b5b06d\">Starting at 8th level, you may create a feeling of terror with one creature you can see within 30 feet of you. Once selected, every time damage is done to the target, they receive an extra 1d4 psychic damage. You may only have one target selected at a time. This effect ends if you are unconscious or dead.</strong></span></p><p><span style=\"font-family:Arial,sans-serif\"><strong style=\"font-weight:normal\" id=\"docs-internal-guid-b0cb4f32-7fff-326b-ae3a-6ce289b5b06d\">Starting at 14th level, this damage increases to 2d4.</strong></span></p>",
      "chat": ""
    },
    "source": {
      "book": "AGTT",
      "page": "",
      "custom": "",
      "license": ""
    },
    "activation": {
      "type": "",
      "cost": null,
      "condition": ""
    },
    "duration": {
      "value": "",
      "units": ""
    },
    "cover": null,
    "crewed": false,
    "target": {
      "value": "",
      "width": null,
      "units": "",
      "type": "",
      "prompt": true
    },
    "range": {
      "value": null,
      "long": null,
      "units": ""
    },
    "uses": {
      "value": null,
      "max": "",
      "per": null,
      "recovery": "",
      "prompt": true
    },
    "consume": {
      "type": "",
      "target": null,
      "amount": null,
      "scale": false
    },
    "ability": null,
    "actionType": "",
    "attack": {
      "bonus": "",
      "flat": false
    },
    "chatFlavor": "",
    "critical": {
      "threshold": null,
      "damage": ""
    },
    "damage": {
      "parts": [],
      "versatile": ""
    },
    "enchantment": null,
    "formula": "",
    "save": {
      "ability": "",
      "dc": null,
      "scaling": "spell"
    },
    "summons": null,
    "type": {
      "value": "class",
      "subtype": ""
    },
    "prerequisites": {
      "level": null
    },
    "properties": [],
    "requirements": "Fear Domain 8",
    "recharge": {
      "value": null,
      "charged": false
    }
  },
  "effects": [],
  "sort": 0,
  "ownership": {
    "default": 0,
    "jRuzd19UqO72fSRx": 3
  },
  "flags": {},
  "_stats": {
    "compendiumSource": null,
    "duplicateSource": null,
    "coreVersion": "12.327",
    "systemId": "dnd5e",
    "systemVersion": "3.2.1",
    "createdTime": 1719441158128,
    "modifiedTime": 1719441182063,
    "lastModifiedBy": "jRuzd19UqO72fSRx"
  },
  "_key": "!items!PuJcQB2vwjw2L0ko"
}
