{
  "folder": "4sKaZROdCTT5vgQI",
  "name": "Seeing Red",
  "type": "feat",
  "_id": "2eengNyY6AIgFdvj",
  "img": "systems/dnd5e/icons/svg/items/feature.svg",
  "system": {
    "description": {
      "value": "<p><span style=\"font-family:Arial,sans-serif\"><strong style=\"font-weight:normal\" id=\"docs-internal-guid-66a1667a-7fff-e9fc-669e-0a8fb4112d5d\">At 8th level, you gain the ability to infuse your weapon strikes with pure rage. Once on each of your turns when you hit a creature with a weapon attack, you can cause the attack to deal an extra 1d6 damage of the same type dealt by the weapon to the target. The number of d6’s increases by 1 for each turn you have spent using the attack action during this encounter. If you spend your action doing something other than attacking, the counter resets to 1d6.</strong></span></p><p><span style=\"font-family:Arial,sans-serif\"><strong style=\"font-weight:normal\" id=\"docs-internal-guid-66a1667a-7fff-e9fc-669e-0a8fb4112d5d\">When you reach 14th level, the extra damage begins at 2d6 and increases by 2 for each round spent attacking.</strong></span></p>",
      "chat": ""
    },
    "source": {
      "custom": "",
      "book": "AGTT",
      "page": "",
      "license": ""
    },
    "activation": {
      "type": "",
      "cost": null,
      "condition": ""
    },
    "duration": {
      "value": "",
      "units": ""
    },
    "cover": null,
    "crewed": false,
    "target": {
      "value": "",
      "width": null,
      "units": "",
      "type": "",
      "prompt": true
    },
    "range": {
      "value": null,
      "long": null,
      "units": ""
    },
    "uses": {
      "value": null,
      "max": "",
      "per": null,
      "recovery": "",
      "prompt": true
    },
    "consume": {
      "type": "",
      "target": null,
      "amount": null,
      "scale": false
    },
    "ability": null,
    "actionType": "",
    "attack": {
      "bonus": "",
      "flat": false
    },
    "chatFlavor": "",
    "critical": {
      "threshold": null,
      "damage": ""
    },
    "damage": {
      "parts": [],
      "versatile": ""
    },
    "enchantment": null,
    "formula": "",
    "save": {
      "ability": "",
      "dc": null,
      "scaling": "spell"
    },
    "summons": null,
    "type": {
      "value": "class",
      "subtype": ""
    },
    "prerequisites": {
      "level": null
    },
    "properties": [],
    "requirements": "Violence Domain 8",
    "recharge": {
      "value": null,
      "charged": false
    }
  },
  "effects": [],
  "sort": 0,
  "ownership": {
    "default": 0,
    "jRuzd19UqO72fSRx": 3
  },
  "flags": {},
  "_stats": {
    "compendiumSource": null,
    "duplicateSource": null,
    "coreVersion": "12.327",
    "systemId": "dnd5e",
    "systemVersion": "3.2.1",
    "createdTime": 1719446410653,
    "modifiedTime": 1719446487882,
    "lastModifiedBy": "jRuzd19UqO72fSRx"
  },
  "_key": "!items!2eengNyY6AIgFdvj"
}
