{
  "folder": "U5v1hMmRoXaXPQtW",
  "name": "Empathy",
  "type": "spell",
  "_id": "a9I2X5EBhGVrraJD",
  "img": "systems/dnd5e/icons/svg/items/spell.svg",
  "system": {
    "description": {
      "value": "<p><strong>Consumes 15 HP</strong></p><p><span style=\"font-family:Arial,sans-serif\"><strong style=\"font-weight:normal\" id=\"docs-internal-guid-4d83ed69-7fff-d07f-d345-f067e9ec259a\">Select two creatures within 30 feet of you. The first creature is now bonded to the second. Whenever the first creature takes any damage, the second will receive double that amount instantaneously.</strong></span></p>",
      "chat": ""
    },
    "source": {
      "book": "AGTT",
      "page": "",
      "custom": "",
      "license": ""
    },
    "activation": {
      "type": "action",
      "cost": 1,
      "condition": ""
    },
    "duration": {
      "value": "1",
      "units": "minute"
    },
    "cover": null,
    "crewed": false,
    "target": {
      "value": "2",
      "width": null,
      "units": "",
      "type": "creature",
      "prompt": true
    },
    "range": {
      "value": 30,
      "long": null,
      "units": "ft"
    },
    "uses": {
      "value": null,
      "max": "",
      "per": null,
      "recovery": "",
      "prompt": true
    },
    "consume": {
      "type": "attribute",
      "target": "attributes.hp.value",
      "amount": 15,
      "scale": false
    },
    "ability": null,
    "actionType": "",
    "attack": {
      "bonus": "",
      "flat": false
    },
    "chatFlavor": "",
    "critical": {
      "threshold": null,
      "damage": ""
    },
    "damage": {
      "parts": [],
      "versatile": ""
    },
    "enchantment": null,
    "formula": "",
    "save": {
      "ability": "",
      "dc": null,
      "scaling": "spell"
    },
    "summons": null,
    "level": 5,
    "school": "blood",
    "properties": [
      "concentration"
    ],
    "materials": {
      "value": "",
      "consumed": false,
      "cost": 0,
      "supply": 0
    },
    "preparation": {
      "mode": "prepared",
      "prepared": false
    },
    "scaling": {
      "mode": "none",
      "formula": ""
    }
  },
  "effects": [],
  "sort": 0,
  "ownership": {
    "default": 0
  },
  "flags": {},
  "_stats": {
    "duplicateSource": null,
    "coreVersion": "12.327",
    "systemId": "dnd5e",
    "systemVersion": "3.2.1",
    "createdTime": 1719371859303,
    "modifiedTime": 1719371968133,
    "lastModifiedBy": "dnd5ebuilder0000"
  },
  "_key": "!items!a9I2X5EBhGVrraJD"
}
